[
  {
    "title": "Open Source",
    "description": "All our products are delivered with 100% open firmware and electronics. This allows you to make your own customizations to our products, making them perfect for your use case.",
    "image": "images/features/open.svg"
  },
  {
    "title": "Our Team",
    "description": "Our team is broad-based and offers expertise in many areas. We work closely within our own team and also with customer teams. So you can also benefit from our extensive know-how and experience.",
    "image": "images/features/team.svg"
  },
  {
    "title": "Software Quality",
    "description": "High software quality is our top priority. We develop according to modern standards and live principles like SOLID, RAII and DRY. CI, static code analysis and other quality management tools are a must have for us",
    "image": "images/features/qual.svg"
  }
]
